{
  "blogs": {
    "count": 50,
    "next": "https://api.example.com/blogs/?page=2",
    "previous": null,
    "results": [
      {
        "id": 1,
        "title": "Sample Blog Post 1",
        "content": "This is the content of the first blog post.",
        "author": "John Doe",
        "abstract": "abstract",
        "image": "image",
        "created_at": "2021-07-01T12:34:56Z"
      },
      {
        "id": 2,
        "title": "Sample Blog Post 1",
        "content": "This is the content of the first blog post.",
        "author": "John Doe",
        "abstract": "abstract",
        "image": "image",
        "created_at": "2021-07-01T12:34:56Z"
      }
    ]
  },
   "license": [
      {
        "id": 1,
        "title": "Sample Blog Post 1",
        "image": "image",
        "created_at": "2021-07-01T12:34:56Z"
      },
      {
        "id": 2,
        "title": "Sample Blog Post 1",
        "image": "image",
        "created_at": "2021-07-01T12:34:56Z"
      }
    ]
}
